<?xml version="1.0" encoding="UTF-8"?>
<glyph name="k" format="2">
  <advance width="357"/>
  <unicode hex="006B"/>
  <outline>
    <contour>
      <point x="10" y="17" type="curve" smooth="yes"/>
      <point x="10" y="160"/>
      <point x="10" y="302"/>
      <point x="10" y="445" type="curve" smooth="yes"/>
      <point x="10" y="460"/>
      <point x="22" y="472"/>
      <point x="37" y="472" type="curve" smooth="yes"/>
      <point x="52" y="472"/>
      <point x="64" y="460"/>
      <point x="64" y="445" type="curve" smooth="yes"/>
      <point x="64" y="141" type="line"/>
      <point x="232" y="321" type="line" smooth="yes"/>
      <point x="237" y="326"/>
      <point x="243" y="329"/>
      <point x="251" y="329" type="curve" smooth="yes"/>
      <point x="266" y="329"/>
      <point x="278" y="317"/>
      <point x="278" y="302" type="curve" smooth="yes"/>
      <point x="278" y="295"/>
      <point x="275" y="289"/>
      <point x="271" y="284" type="curve" smooth="yes"/>
      <point x="173" y="179" type="line"/>
      <point x="273" y="32" type="line" smooth="yes"/>
      <point x="285" y="14"/>
      <point x="272" y="-10"/>
      <point x="251" y="-10" type="curve" smooth="yes"/>
      <point x="242" y="-10"/>
      <point x="234" y="-5"/>
      <point x="229" y="2" type="curve" smooth="yes"/>
      <point x="135" y="139" type="line"/>
      <point x="64" y="63" type="line"/>
      <point x="64" y="17" type="line" smooth="yes"/>
      <point x="64" y="2"/>
      <point x="52" y="-10"/>
      <point x="37" y="-10" type="curve" smooth="yes"/>
      <point x="22" y="-10"/>
      <point x="10" y="2"/>
    </contour>
  </outline>
  <lib>
    <dict>
      <key>com.fontlab.hintData</key>
      <dict>
        <key>hhints</key>
        <array>
          <dict>
            <key>position</key>
            <integer>-10</integer>
            <key>width</key>
            <integer>21</integer>
          </dict>
          <dict>
            <key>position</key>
            <integer>309</integer>
            <key>width</key>
            <integer>20</integer>
          </dict>
          <dict>
            <key>position</key>
            <integer>452</integer>
            <key>width</key>
            <integer>20</integer>
          </dict>
        </array>
        <key>vhints</key>
        <array>
          <dict>
            <key>position</key>
            <integer>10</integer>
            <key>width</key>
            <integer>54</integer>
          </dict>
        </array>
      </dict>
    </dict>
  </lib>
</glyph>
